<?xml version="1.0" encoding="utf-8"?>
<svg viewBox="-2.28 -2.005 269.984 80.069" xmlns="http://www.w3.org/2000/svg">
  <defs>
    <style>
      .cls-1 {
        fill: #ec6608;
      }

      .cls-2 {
        fill: #fff;
      }

      .cls-3 {
        fill: #11284b;
      }

      .cls-4 {
        fill: #1a2a4a;
      }
    </style>
  </defs>
  <g>
    <path class="cls-3" d="m20.94.04C20.55.01,20.15,0,19.77,0c-5.41,0-10.32,2.3-14.59,6.87C1.29,11.02-.01,14.36,0,18.39c0,2.16.39,4.51.96,7.3,1.07,5.24,4.18,10.29,8.53,13.87,3.33,2.74,7.05,4.14,10.97,4.17,2.03.01,4.12-.34,6.23-1.07,6.82-2.35,13.35-9.1,15.87-16.39.8-2.31,1.19-4.56,1.18-6.7-.02-5.23-2.41-9.81-6.97-13.08C31.23,2.51,25.9.34,20.94.04Z"/>
    <g>
      <path class="cls-2" d="m13.15,21.94h-1.5v.04c-.01.29-.19,2.84-2.47,2.84-2.04,0-3.08-1.83-3.08-5.44,0-3.61,1.04-5.44,3.08-5.44,2.32,0,2.46,2.73,2.47,2.84v.04h1.5c.14,0,.27-.06.37-.16.09-.1.14-.22.13-.35-.03-.71-.39-4.24-4.49-4.24-3.31,0-5.06,2.52-5.06,7.28s1.75,7.3,5.06,7.3c3.95,0,4.44-3.22,4.49-4.21,0-.14-.04-.27-.13-.37-.1-.1-.23-.16-.37-.16Z"/>
      <path class="cls-2" d="m36.46,18.52h0s-1.29-.56-1.29-.56c-1.24-.55-1.68-1.08-1.68-2.03,0-1.24.91-2.08,2.26-2.08.8,0,1.46.16,2.26.98l.04.04.69-.63c.4-.37.28-.7.12-.92-.67-.79-1.75-1.23-3.04-1.23-2.49,0-4.29,1.62-4.29,3.86s1.38,3.12,2.88,3.78l1.32.59c1.32.59,1.96,1.1,1.96,2.37,0,1.74-1.57,2.2-2.5,2.2-.8,0-1.69-.17-2.78-1.41l-.04-.05-.72.63c-.37.32-.37.6-.01,1.07.99,1.27,2.44,1.54,3.48,1.54,2.25,0,4.53-1.38,4.53-4.03,0-2.29-1.27-3.31-3.18-4.13Z"/>
      <path class="cls-2" d="m23.72,16.27c0-2.25-1.82-4.16-4.08-4.16-1.06,0-2.02.4-2.75,1.07v-.77h-1.36c-.41,0-.56.27-.56.57v13.13c0,.37.23.57.56.57h1.36v-10.33c0-1.36,1.1-2.46,2.46-2.46s2.46,1.1,2.46,2.46v10.33h1.35c.37,0,.57-.21.57-.56v-9.85Z"/>
      <path class="cls-2" d="m31.49,13.09c.07-.09.11-.2.11-.32,0-.23-.15-.42-.35-.48-.39-.13-.81-.2-1.24-.2-1.06,0-2.02.4-2.75,1.07v-.77h-1.36c-.41,0-.56.27-.56.57v13.13c0,.37.23.57.56.57h1.36v-10.33c0-1.36,1.1-2.46,2.46-2.46.36,0,.69.08,1,.21l.78-.98h0Z"/>
    </g>
  </g>
  <path class="cls-1" d="M 98.31 6.09 L 89.23 6.09 L 89.23 24.55 L 97.58 24.55 L 97.58 12.79 L 97.87 12.79 C 101.9 12.79 105.15 14.34 105.15 21.72 C 105.15 29.1 101.9 30.94 97.88 30.94 C 97.88 30.94 97.88 30.94 97.88 30.94 L 89.22 30.94 L 89.22 37.64 L 98.8 37.64 C 107.34 37.64 113.7 32.88 113.7 21.72 C 113.7 10.56 107.34 6.09 98.31 6.09 L 98.31 6.09 Z" style="fill: rgb(0, 68, 170);"/>
  <path class="cls-1" d="M 148.64 37.64 L 141.78 25.38 C 144.85 23.73 146.9 20.79 146.9 16.28 C 146.9 8.42 141.07 6.09 134.28 6.09 L 122.52 6.09 L 122.52 12.69 L 133.7 12.69 C 137 12.69 138.75 13.56 138.75 16.28 C 138.75 19 137 20.45 133.7 20.45 L 122.54 20.45 L 122.54 37.63 L 130.89 37.63 L 130.89 27.05 L 133.9 27.05 L 139.33 37.63 L 148.65 37.63 L 148.64 37.64 Z" style="fill: rgb(0, 68, 170);"/>
  <g>
    <rect class="cls-1" x="68.95" y="19.29" width="11.44" height="6.8" style="fill: rgb(0, 68, 170);"/>
    <path class="cls-1" d="m68.08,31.04c-4.51,0-6.7-3.3-6.7-9.22s2.82-9.13,6.26-9.13c2.28,0,3.54.78,4.85,2.04l4.56-5.15c-2.09-2.14-5.15-4.08-9.42-4.08-8.2,0-14.85,5.92-14.85,16.6s6.7,16.12,14.81,16.12c4.03,0,7.91-1.94,10.05-3.88v-3.3h-9.56Z" style="fill: rgb(0, 68, 170);"/>
  </g>
  <g>
    <path class="cls-4" d="m158.27,14.4c0-3.62,2.11-5.73,5.13-5.73,1.51,0,2.51.7,3.22,1.41l-.8.9c-.6-.6-1.31-1.01-2.41-1.01-2.21,0-3.72,1.71-3.72,4.52s1.31,4.52,3.72,4.52c.8,0,1.61-.2,2.01-.6v-3.12h-2.31v-1.21h3.62v4.62c-.7.7-1.91,1.31-3.42,1.31-2.91.1-5.03-2.01-5.03-5.63Z"/>
    <path class="cls-4" d="m170.74,11.69h1.11l.1,1.51h0c.6-1.01,1.41-1.71,2.31-1.71.4,0,.6,0,.9.2l-.3,1.21c-.3-.1-.5-.1-.8-.1-.7,0-1.51.5-2.11,1.91v5.33h-1.41v-8.34h.2Z"/>
    <path class="cls-4" d="m177.37,15.81c0-2.71,1.81-4.32,3.82-4.32s3.82,1.61,3.82,4.32-1.81,4.32-3.82,4.32-3.82-1.61-3.82-4.32Zm6.23,0c0-1.91-1.01-3.22-2.41-3.22s-2.41,1.31-2.41,3.22,1.01,3.12,2.41,3.12,2.41-1.21,2.41-3.12Z"/>
    <path class="cls-4" d="m188.53,16.92v-5.23h1.41v5.03c0,1.51.5,2.21,1.51,2.21.8,0,1.41-.4,2.21-1.41v-5.83h1.41v8.24h-1.11l-.1-1.31h0c-.8.9-1.61,1.51-2.71,1.51-1.81,0-2.61-1.11-2.61-3.22Z"/>
    <path class="cls-4" d="m199.38,11.69h1.11l.1.9h0c.7-.6,1.71-1.11,2.61-1.11,2.11,0,3.22,1.61,3.22,4.22,0,2.81-1.71,4.42-3.52,4.42-.7,0-1.51-.3-2.31-.9v4.12h-1.21v-11.66Zm5.73,4.02c0-1.81-.6-3.02-2.21-3.02-.7,0-1.41.4-2.21,1.11v4.32c.7.6,1.51.9,2.01.9,1.41-.1,2.41-1.31,2.41-3.32Z"/>
    <path class="cls-4" d="m209.63,15.81c0-2.71,1.81-4.32,3.72-4.32,2.11,0,3.32,1.51,3.32,3.82,0,.3,0,.6-.1.8h-5.53c.1,1.71,1.21,2.91,2.71,2.91.8,0,1.41-.3,2.01-.7l.5.9c-.7.5-1.61.8-2.71.8-2.11.1-3.92-1.51-3.92-4.22Zm5.73-.7c0-1.61-.7-2.51-2.01-2.51-1.11,0-2.21.9-2.31,2.51h4.32Z"/>
    <path class="cls-4" d="m220.19,11.69h1.11l.1,1.21h0c.7-.8,1.61-1.41,2.51-1.41,1.31,0,1.91.6,2.31,1.61.8-.9,1.71-1.61,2.71-1.61,1.71,0,2.51,1.11,2.51,3.22v5.23h-1.41v-5.03c0-1.51-.5-2.21-1.51-2.21-.6,0-1.31.4-2.11,1.31v5.93h-1.41v-5.03c0-1.51-.5-2.21-1.51-2.21-.6,0-1.31.4-2.11,1.31v5.93h-1.41v-8.24h.2Z"/>
    <path class="cls-4" d="m235.06,15.81c0-2.71,1.81-4.32,3.72-4.32,2.11,0,3.32,1.51,3.32,3.82,0,.3,0,.6-.1.8h-5.53c.1,1.71,1.21,2.91,2.71,2.91.8,0,1.41-.3,2.01-.7l.5.9c-.7.5-1.61.8-2.71.8-2.21.1-3.92-1.51-3.92-4.22Zm5.73-.7c0-1.61-.7-2.51-2.01-2.51-1.11,0-2.21.9-2.31,2.51h4.32Z"/>
    <path class="cls-4" d="m245.62,11.69h1.11l.1,1.21h0c.8-.8,1.61-1.41,2.71-1.41,1.71,0,2.51,1.11,2.51,3.22v5.23h-1.41v-5.03c0-1.51-.5-2.21-1.51-2.21-.8,0-1.41.4-2.21,1.31v5.93h-1.31v-8.24Z"/>
    <path class="cls-4" d="m256.57,17.42v-4.52h-1.21v-1.01l1.31-.1.2-2.31h1.21v2.31h2.21v1.11h-2.21v4.52c0,1.01.3,1.61,1.31,1.61.3,0,.7-.1.9-.2l.3,1.01c-.5.2-1.01.3-1.51.3-1.91,0-2.51-1.11-2.51-2.71Z"/>
    <path class="cls-4" d="m158.27,32.7c0-2.71,1.71-4.32,3.52-4.32,1.01,0,1.61.4,2.31.9l-.1-1.41v-3.22h1.41v12.06h-1.11l-.1-1.01h0c-.6.6-1.51,1.21-2.51,1.21-2.11.1-3.42-1.41-3.42-4.22Zm5.83,2.01v-4.32c-.7-.6-1.31-.9-2.01-.9-1.31,0-2.31,1.31-2.31,3.12,0,2.01.8,3.12,2.21,3.12.7.2,1.41-.2,2.11-1.01Z"/>
    <path class="cls-4" d="m169.13,32.7c0-2.71,1.81-4.32,3.72-4.32,2.11,0,3.32,1.51,3.32,3.82,0,.3,0,.6-.1.8h-5.53c.1,1.71,1.21,2.91,2.71,2.91.8,0,1.41-.3,2.01-.7l.5.9c-.7.5-1.61.8-2.71.8-2.21.1-3.92-1.51-3.92-4.22Zm5.73-.6c0-1.61-.7-2.51-2.01-2.51-1.11,0-2.21.9-2.31,2.51h4.32Z"/>
    <path class="cls-4" d="m184.51,28.57h1.11l.1,1.51h0c.6-1.01,1.41-1.71,2.31-1.71.4,0,.6,0,.9.2l-.3,1.21c-.3-.1-.5-.1-.8-.1-.7,0-1.51.5-2.11,1.91v5.33h-1.41v-8.34h.2Z"/>
    <path class="cls-4" d="m191.14,32.7c0-2.71,1.81-4.32,3.72-4.32,2.11,0,3.32,1.51,3.32,3.82,0,.3,0,.6-.1.8h-5.53c.1,1.71,1.21,2.91,2.71,2.91.8,0,1.41-.3,2.01-.7l.5.9c-.7.5-1.61.8-2.71.8-2.21.1-3.92-1.51-3.92-4.22Zm5.73-.6c0-1.61-.7-2.51-2.01-2.51-1.11,0-2.21.9-2.31,2.51h4.32Z"/>
    <path class="cls-4" d="m200.99,32.7c0-2.71,1.81-4.32,3.92-4.32,1.11,0,1.81.4,2.41,1.01l-.7.9c-.5-.4-1.01-.7-1.61-.7-1.51,0-2.61,1.31-2.61,3.22s1.01,3.12,2.51,3.12c.7,0,1.41-.4,1.91-.8l.6.9c-.7.7-1.71,1.01-2.61,1.01-2.11,0-3.82-1.61-3.82-4.32Z"/>
    <path class="cls-4" d="m210.84,24.75h1.41v5.03c.8-.7,1.61-1.41,2.71-1.41,1.71,0,2.51,1.11,2.51,3.22v5.23h-1.41v-5.03c0-1.51-.5-2.21-1.51-2.21-.8,0-1.41.4-2.21,1.31v5.93h-1.41v-12.06h-.1Z"/>
    <path class="cls-4" d="m220.89,32.7c0-2.71,1.81-4.32,3.72-4.32,2.11,0,3.32,1.51,3.32,3.82,0,.3,0,.6-.1.8h-5.53c.1,1.71,1.21,2.91,2.71,2.91.8,0,1.41-.3,2.01-.7l.5.9c-.7.5-1.61.8-2.71.8-2.11.1-3.92-1.51-3.92-4.22Zm5.83-.6c0-1.61-.7-2.51-2.01-2.51-1.11,0-2.21.9-2.31,2.51h4.32Z"/>
    <path class="cls-4" d="m231.44,28.57h1.11l.1,1.51h0c.6-1.01,1.41-1.71,2.31-1.71.4,0,.6,0,.9.2l-.3,1.21c-.3-.1-.5-.1-.8-.1-.7,0-1.51.5-2.11,1.91v5.33h-1.41v-8.34h.2Z"/>
    <path class="cls-4" d="m238.08,32.7c0-2.71,1.81-4.32,3.92-4.32,1.11,0,1.81.4,2.41,1.01l-.7.9c-.5-.4-1.01-.7-1.61-.7-1.51,0-2.61,1.31-2.61,3.22s1.01,3.12,2.51,3.12c.7,0,1.41-.4,1.91-.8l.6.9c-.7.7-1.71,1.01-2.61,1.01-2.21,0-3.82-1.61-3.82-4.32Z"/>
    <path class="cls-4" d="m247.83,24.75h1.41v5.03c.8-.7,1.61-1.41,2.71-1.41,1.71,0,2.51,1.11,2.51,3.22v5.23h-1.41v-5.03c0-1.51-.5-2.21-1.51-2.21-.8,0-1.41.4-2.21,1.31v5.93h-1.41v-12.06h-.1Z"/>
    <path class="cls-4" d="m257.98,32.7c0-2.71,1.81-4.32,3.72-4.32,2.11,0,3.32,1.51,3.32,3.82,0,.3,0,.6-.1.8h-5.53c.1,1.71,1.21,2.91,2.71,2.91.8,0,1.41-.3,2.01-.7l.5.9c-.7.5-1.61.8-2.71.8-2.21.1-3.92-1.51-3.92-4.22Zm5.73-.6c0-1.61-.7-2.51-2.01-2.51-1.11,0-2.21.9-2.31,2.51h4.32Z"/>
  </g>
  <g id="Nom_GDR" data-name="Nom GDR">
    <g>
      <path class="cls-1" d="m56.87,46.21c.16,0,.24.09.24.27v10.5c0,.13-.03.22-.09.28-.06.06-.17.08-.32.08h-1.89c-.12,0-.21-.02-.25-.08-.05-.05-.08-.13-.08-.24v-10.53c0-.19.08-.28.24-.28h2.14Z" style="fill: rgb(0, 68, 170);"/>
      <path class="cls-1" d="m65.08,48.15c-.34-.17-.77-.25-1.31-.25-.61,0-1.08.11-1.4.33-.32.22-.48.51-.48.87,0,.52.4.9,1.21,1.14l2.37.68c.89.25,1.55.65,1.99,1.19.43.54.65,1.19.65,1.95,0,.7-.18,1.31-.54,1.82s-.88.91-1.55,1.19c-.67.28-1.47.42-2.38.42-1.02,0-1.94-.17-2.76-.52-.82-.34-1.42-.82-1.8-1.42-.04-.07-.06-.13-.06-.19,0-.08.05-.17.15-.25l1.16-.79c.1-.06.19-.09.27-.09.09,0,.17.04.22.12.37.48.75.82,1.12,1.02.38.2.88.3,1.51.3.67,0,1.2-.1,1.58-.31s.57-.52.57-.94c0-.27-.1-.5-.29-.69-.19-.19-.51-.35-.96-.5l-2.26-.65c-.86-.24-1.53-.64-2-1.21-.47-.56-.71-1.21-.71-1.93,0-.64.18-1.22.53-1.73.36-.51.86-.91,1.51-1.21.65-.29,1.4-.44,2.25-.44s1.61.14,2.31.43,1.24.67,1.61,1.15c.06.08.09.15.09.21s-.03.12-.09.17l-1.26.93c-.06.04-.11.06-.14.06-.05,0-.13-.06-.24-.17-.26-.29-.56-.52-.89-.68Z" style="fill: rgb(0, 68, 170);"/>
      <path class="cls-1" d="m72.5,46.21c.16,0,.24.09.24.27v10.5c0,.13-.03.22-.09.28-.06.06-.17.08-.32.08h-1.89c-.12,0-.21-.02-.25-.08-.05-.05-.08-.13-.08-.24v-10.53c0-.19.08-.28.24-.28h2.14Z" style="fill: rgb(0, 68, 170);"/>
      <path class="cls-1" d="m80.71,48.15c-.34-.17-.77-.25-1.31-.25-.61,0-1.08.11-1.4.33-.32.22-.48.51-.48.87,0,.52.4.9,1.21,1.14l2.37.68c.89.25,1.55.65,1.99,1.19.43.54.65,1.19.65,1.95,0,.7-.18,1.31-.54,1.82s-.88.91-1.55,1.19c-.67.28-1.47.42-2.38.42-1.02,0-1.94-.17-2.76-.52-.82-.34-1.42-.82-1.8-1.42-.04-.07-.06-.13-.06-.19,0-.08.05-.17.15-.25l1.16-.79c.1-.06.19-.09.27-.09.09,0,.17.04.22.12.37.48.75.82,1.12,1.02.38.2.88.3,1.51.3.67,0,1.2-.1,1.58-.31s.57-.52.57-.94c0-.27-.1-.5-.29-.69-.19-.19-.51-.35-.96-.5l-2.26-.65c-.86-.24-1.53-.64-2-1.21-.47-.56-.71-1.21-.71-1.93,0-.64.18-1.22.53-1.73.36-.51.86-.91,1.51-1.21.65-.29,1.4-.44,2.25-.44s1.61.14,2.31.43,1.24.67,1.61,1.15c.06.08.09.15.09.21s-.03.12-.09.17l-1.26.93c-.06.04-.11.06-.14.06-.05,0-.13-.06-.24-.17-.26-.29-.56-.52-.89-.68Z" style="fill: rgb(0, 68, 170);"/>
      <path class="cls-1" d="m90.71,47.69c.11,0,.17.06.17.19v9.2c0,.1-.02.16-.06.2s-.11.05-.21.05h-1.07c-.09,0-.15-.02-.18-.05-.04-.03-.05-.08-.05-.16v-9.24c0-.13.06-.19.18-.19h1.22Z" style="fill: rgb(0, 68, 170);"/>
      <path class="cls-1" d="m93.27,57.13v-6.49c0-.13.06-.2.17-.2h1.03c.1,0,.16.06.16.17v.72c0,.05.01.08.03.09.02,0,.05,0,.1-.05.45-.36.85-.63,1.2-.8s.72-.25,1.13-.25c.65,0,1.16.18,1.53.54.37.36.55.84.55,1.45v4.8c0,.16-.07.23-.22.23h-.96c-.13,0-.2-.07-.2-.21v-4.55c0-.39-.1-.69-.31-.9-.2-.21-.51-.32-.92-.32-.33,0-.63.08-.92.23-.28.15-.61.4-.99.75v4.78c0,.08-.02.13-.06.17s-.1.05-.19.05h-.92c-.14,0-.21-.07-.21-.21Z" style="fill: rgb(0, 68, 170);"/>
      <path class="cls-1" d="m105.06,50.62v.68c0,.1-.06.14-.17.14h-1.35c-.08,0-.12.04-.12.12v5.58c0,.14-.06.21-.17.21h-1.05c-.1,0-.16-.06-.16-.18v-5.62c0-.07-.03-.1-.09-.1h-1.17c-.1,0-.16-.05-.16-.14v-.68c0-.11.06-.17.17-.17h1.12c.05,0,.09-.01.1-.03.02-.02.03-.06.03-.12v-.9c0-.55.15-.97.44-1.26.29-.29.72-.44,1.28-.44h1.16c.13,0,.2.06.2.19v.61s0,.08-.03.11c-.03.03-.07.05-.12.05h-.83c-.24,0-.42.08-.55.23-.12.16-.18.37-.18.65v.79c0,.08.04.12.13.12h1.35c.12,0,.18.06.18.17Z" style="fill: rgb(0, 68, 170);"/>
      <path class="cls-1" d="m107.55,57.02c-.51-.3-.9-.72-1.18-1.25-.28-.54-.42-1.15-.42-1.83s.14-1.33.43-1.88c.29-.55.68-.98,1.19-1.28.51-.3,1.09-.46,1.74-.46s1.24.15,1.75.46.9.73,1.18,1.28c.28.55.42,1.17.42,1.86s-.14,1.3-.42,1.83c-.28.54-.68.96-1.18,1.26-.51.3-1.09.46-1.75.46s-1.24-.15-1.75-.45Zm3.19-1.21c.34-.46.51-1.09.51-1.92s-.17-1.47-.51-1.93c-.34-.46-.82-.7-1.42-.7s-1.08.23-1.43.7c-.35.46-.52,1.11-.52,1.93s.17,1.45.52,1.91c.35.46.83.69,1.44.69s1.08-.23,1.42-.68Z" style="fill: rgb(0, 68, 170);"/>
      <path class="cls-1" d="m114.43,57.13v-6.49c0-.13.06-.2.17-.2h1c.1,0,.16.06.16.17v.82c0,.05.01.08.04.09.03,0,.06,0,.1-.05.32-.37.65-.66.99-.86.34-.2.68-.3,1.01-.3.3,0,.46.06.46.18v1.01c0,.1-.05.15-.14.13-.17-.04-.39-.06-.69-.06-.24,0-.5.07-.77.2-.27.13-.49.31-.68.53-.18.22-.27.44-.27.66v4.15c0,.15-.08.22-.25.22h-.92c-.14,0-.21-.07-.21-.21Z" style="fill: rgb(0, 68, 170);"/>
      <path class="cls-1" d="m119.9,57.13v-6.49c0-.13.06-.2.17-.2h1.01c.1,0,.16.06.16.17v.72c0,.05.01.08.04.09.03,0,.06,0,.09-.05.43-.36.82-.63,1.16-.8.34-.17.71-.25,1.11-.25.48,0,.87.11,1.18.33.31.22.53.5.66.84.02.03.03.04.05.04.04,0,.07-.02.12-.06.41-.37.8-.66,1.17-.85s.76-.29,1.17-.29c.62,0,1.11.18,1.46.54.35.36.53.85.53,1.48v4.77c0,.16-.08.23-.23.23h-.96c-.07,0-.12-.02-.14-.05-.03-.03-.04-.08-.04-.16v-4.55c0-.39-.1-.69-.29-.9-.19-.21-.48-.32-.86-.32-.52,0-1.07.27-1.66.82-.06.06-.1.12-.13.18-.03.06-.04.12-.04.2v4.55c0,.16-.08.23-.23.23h-.95c-.13,0-.2-.07-.2-.21v-4.55c0-.39-.09-.69-.28-.9-.19-.21-.47-.32-.86-.32-.31,0-.6.08-.87.23-.27.15-.59.4-.96.75v4.78c0,.08-.02.13-.06.17s-.1.05-.19.05h-.92c-.14,0-.21-.07-.21-.21Z" style="fill: rgb(0, 68, 170);"/>
      <path class="cls-1" d="m133.78,57.47c-.67,0-1.19-.17-1.58-.51-.39-.34-.58-.8-.58-1.37,0-.7.31-1.26.92-1.68.61-.42,1.48-.65,2.61-.7l.84-.07c.14-.02.21-.08.21-.19v-.33c0-.42-.13-.76-.39-1.01-.26-.25-.62-.37-1.07-.37-.71,0-1.28.32-1.7.96-.03.05-.05.08-.08.1-.03.01-.08.01-.14,0l-.88-.26c-.05-.02-.08-.05-.08-.1,0-.03.01-.08.04-.14.24-.47.61-.83,1.11-1.09.5-.26,1.1-.38,1.8-.38.91,0,1.59.19,2.04.58.45.39.68.93.68,1.62v4.59c0,.09-.02.15-.05.18s-.08.05-.15.05h-.87c-.12,0-.19-.09-.21-.26l-.03-.49c-.02-.07-.04-.1-.08-.1-.03,0-.07.03-.14.08-.63.61-1.37.91-2.22.91Zm2.24-3.56l-.7.05c-.72.04-1.29.19-1.71.44-.42.25-.63.59-.63,1.02,0,.34.12.6.36.8.24.19.57.29.98.29.47,0,.91-.16,1.33-.48.37-.3.56-.61.56-.91v-1.01c0-.14-.06-.2-.18-.2Z" style="fill: rgb(0, 68, 170);"/>
      <path class="cls-1" d="m141.72,51.43c-.08,0-.12.04-.12.13v3.81c0,.36.07.62.2.75s.35.21.64.21h.83c.1,0,.16.05.16.16v.56c0,.12-.07.2-.2.22-.28.04-.72.06-1.33.06-.57,0-1-.13-1.27-.4-.28-.26-.42-.67-.42-1.23v-4.12c0-.1-.04-.16-.13-.16h-.98c-.11,0-.17-.05-.17-.16v-.69c0-.1.05-.14.16-.14h1.04c.07,0,.1-.04.1-.12l.16-2.04c.02-.12.07-.18.16-.18h.9c.11,0,.17.07.17.21v2.02c0,.08.04.12.12.12h1.56c.1,0,.16.05.16.14v.69c0,.1-.06.16-.18.16h-1.56Z" style="fill: rgb(0, 68, 170);"/>
      <path class="cls-1" d="m146.51,49.07c0,.1-.02.17-.06.21-.04.04-.11.06-.2.06h-.96c-.09,0-.15-.02-.18-.06-.03-.04-.05-.1-.05-.19v-1.18c0-.15.06-.22.2-.22h1.08c.05,0,.1.02.13.06.03.04.05.09.05.15v1.17Zm-.04,8.02c0,.1-.02.16-.06.2s-.11.05-.2.05h-.88c-.09,0-.15-.02-.18-.05s-.05-.08-.05-.16v-6.49c0-.07.01-.12.04-.15.03-.03.07-.05.14-.05h1.04c.1,0,.16.06.16.18v6.46Z" style="fill: rgb(0, 68, 170);"/>
      <path class="cls-1" d="m149.86,57.02c-.51-.3-.9-.72-1.18-1.25-.28-.54-.42-1.15-.42-1.83s.14-1.33.43-1.88c.29-.55.68-.98,1.19-1.28.51-.3,1.09-.46,1.74-.46s1.24.15,1.75.46.9.73,1.18,1.28c.28.55.42,1.17.42,1.86s-.14,1.3-.42,1.83c-.28.54-.68.96-1.18,1.26-.51.3-1.09.46-1.75.46s-1.24-.15-1.75-.45Zm3.19-1.21c.34-.46.51-1.09.51-1.92s-.17-1.47-.51-1.93c-.34-.46-.82-.7-1.42-.7s-1.08.23-1.43.7c-.35.46-.52,1.11-.52,1.93s.17,1.45.52,1.91c.35.46.83.69,1.44.69s1.08-.23,1.42-.68Z" style="fill: rgb(0, 68, 170);"/>
      <path class="cls-1" d="m156.75,57.13v-6.49c0-.13.06-.2.17-.2h1.03c.1,0,.16.06.16.17v.72c0,.05.01.08.03.09.02,0,.05,0,.1-.05.45-.36.85-.63,1.2-.8s.72-.25,1.13-.25c.65,0,1.16.18,1.53.54.37.36.55.84.55,1.45v4.8c0,.16-.07.23-.22.23h-.96c-.13,0-.2-.07-.2-.21v-4.55c0-.39-.1-.69-.31-.9-.2-.21-.51-.32-.92-.32-.33,0-.63.08-.92.23-.28.15-.61.4-.99.75v4.78c0,.08-.02.13-.06.17s-.1.05-.19.05h-.92c-.14,0-.21-.07-.21-.21Z" style="fill: rgb(0, 68, 170);"/>
      <path class="cls-1" d="m172.48,48.96c-.34-.16-.75-.25-1.23-.25-.62,0-1.09.13-1.44.38-.34.26-.51.61-.51,1.06,0,.6.42,1.04,1.27,1.33l1.95.61c1.47.46,2.21,1.33,2.21,2.6,0,.86-.32,1.53-.96,2.03-.64.49-1.51.74-2.62.74-.82,0-1.55-.14-2.18-.43-.63-.29-1.12-.69-1.47-1.22-.04-.07-.05-.11-.05-.13,0-.07.04-.13.13-.2l.64-.44c.08-.05.15-.08.21-.08s.11.03.16.09c.35.46.71.78,1.06.98.35.19.83.29,1.42.29.68,0,1.21-.12,1.59-.35.38-.23.57-.6.57-1.09,0-.31-.1-.57-.29-.79-.19-.21-.55-.41-1.06-.59l-1.96-.64c-.7-.23-1.23-.58-1.58-1.03s-.53-.95-.53-1.51.14-1.03.43-1.45.69-.75,1.2-.98c.52-.23,1.11-.34,1.79-.34s1.27.12,1.81.35c.54.23.99.55,1.33.96.04.04.07.09.07.14s-.02.1-.07.13l-.74.57s-.07.04-.1.04c-.03,0-.08-.04-.16-.12-.25-.29-.55-.51-.88-.68Z" style="fill: rgb(0, 68, 170);"/>
      <path class="cls-1" d="m178.01,49.07c0,.1-.02.17-.06.21-.04.04-.11.06-.2.06h-.96c-.09,0-.15-.02-.18-.06-.03-.04-.05-.1-.05-.19v-1.18c0-.15.06-.22.2-.22h1.08c.05,0,.1.02.13.06.03.04.05.09.05.15v1.17Zm-.04,8.02c0,.1-.02.16-.06.2s-.11.05-.2.05h-.88c-.09,0-.15-.02-.18-.05s-.05-.08-.05-.16v-6.49c0-.07.01-.12.04-.15.03-.03.07-.05.14-.05h1.04c.1,0,.16.06.16.18v6.46Z" style="fill: rgb(0, 68, 170);"/>
      <path class="cls-1" d="m186.84,50.51v.58c0,.17-.07.26-.22.26s-.27,0-.39.01c-.12,0-.23.03-.31.05-.11.03-.19.08-.23.12-.04.05-.05.11-.03.18,0,.03.04.11.1.26s.08.33.08.53c0,.62-.25,1.12-.75,1.51-.5.39-1.22.59-2.16.59-.57,0-.99.05-1.25.14-.26.1-.39.22-.39.38,0,.13.08.22.25.28.16.06.44.09.83.11l1.73.1c.78.04,1.36.23,1.75.55.39.32.58.75.58,1.29,0,.67-.3,1.19-.9,1.57-.6.38-1.45.57-2.55.57s-2.01-.15-2.61-.46-.89-.75-.89-1.33c0-.29.1-.55.31-.78.21-.23.51-.43.91-.61.1-.05.1-.1,0-.14-.43-.2-.65-.48-.65-.83,0-.21.1-.4.29-.58s.47-.33.81-.46c.05-.02.08-.04.08-.06,0-.03-.03-.06-.08-.09-.39-.2-.68-.44-.87-.73s-.29-.63-.29-1.03c0-.68.27-1.21.8-1.59s1.29-.58,2.26-.58c.85,0,1.51.2,1.99.58.06.04.11.06.14.06.05,0,.1-.03.16-.08.16-.17.37-.32.6-.45.24-.13.46-.19.66-.19.16,0,.25.08.25.23Zm-5,6.12c-.17,0-.34.03-.53.12-.19.09-.34.21-.47.37-.12.16-.19.34-.19.54,0,.79.81,1.18,2.44,1.18.68,0,1.19-.1,1.55-.29.36-.19.53-.49.53-.88,0-.56-.41-.87-1.22-.92l-2.12-.12Zm2.32-3.14c.27-.23.41-.56.41-.98s-.14-.77-.42-1.01-.68-.36-1.22-.36-.94.12-1.24.37-.44.58-.44,1.01.14.74.44.98c.29.23.7.35,1.24.35s.96-.11,1.23-.34Z" style="fill: rgb(0, 68, 170);"/>
      <path class="cls-1" d="m188.4,57.13v-6.49c0-.13.06-.2.17-.2h1.03c.1,0,.16.06.16.17v.72c0,.05.01.08.03.09.02,0,.05,0,.1-.05.45-.36.85-.63,1.2-.8s.72-.25,1.13-.25c.65,0,1.16.18,1.53.54.37.36.55.84.55,1.45v4.8c0,.16-.07.23-.22.23h-.96c-.13,0-.2-.07-.2-.21v-4.55c0-.39-.1-.69-.31-.9-.2-.21-.51-.32-.92-.32-.33,0-.63.08-.92.23-.28.15-.61.4-.99.75v4.78c0,.08-.02.13-.06.17s-.1.05-.19.05h-.92c-.14,0-.21-.07-.21-.21Z" style="fill: rgb(0, 68, 170);"/>
      <path class="cls-1" d="m198.09,57.47c-.67,0-1.19-.17-1.58-.51-.39-.34-.58-.8-.58-1.37,0-.7.31-1.26.92-1.68.61-.42,1.48-.65,2.61-.7l.84-.07c.14-.02.21-.08.21-.19v-.33c0-.42-.13-.76-.39-1.01-.26-.25-.62-.37-1.07-.37-.71,0-1.28.32-1.7.96-.03.05-.05.08-.08.1-.03.01-.08.01-.14,0l-.88-.26c-.05-.02-.08-.05-.08-.1,0-.03.01-.08.04-.14.24-.47.61-.83,1.11-1.09.5-.26,1.1-.38,1.8-.38.91,0,1.59.19,2.04.58.45.39.68.93.68,1.62v4.59c0,.09-.02.15-.05.18s-.08.05-.15.05h-.87c-.12,0-.19-.09-.21-.26l-.03-.49c-.02-.07-.04-.1-.08-.1-.03,0-.07.03-.14.08-.63.61-1.37.91-2.22.91Zm2.24-3.56l-.7.05c-.72.04-1.29.19-1.71.44-.42.25-.63.59-.63,1.02,0,.34.12.6.36.8.24.19.57.29.98.29.47,0,.91-.16,1.33-.48.37-.3.56-.61.56-.91v-1.01c0-.14-.06-.2-.18-.2Z" style="fill: rgb(0, 68, 170);"/>
      <path class="cls-1" d="m205.26,57.09c0,.1-.02.16-.06.2s-.11.05-.21.05h-.88c-.09,0-.15-.02-.18-.05s-.05-.08-.05-.16l.03-9.24c0-.13.06-.19.17-.19h1.03c.11,0,.17.06.17.19v9.2Z" style="fill: rgb(0, 68, 170);"/>
      <path class="cls-1" d="m55.98,63.29c.11,0,.17.06.17.19v9.2c0,.1-.02.16-.06.2s-.11.05-.21.05h-1.07c-.09,0-.15-.02-.18-.05-.04-.03-.05-.08-.05-.16v-9.24c0-.13.06-.19.18-.19h1.22Z" style="fill: rgb(0, 68, 170);"/>
      <path class="cls-1" d="m58.54,72.73v-6.49c0-.13.06-.2.17-.2h1.01c.1,0,.16.06.16.17v.72c0,.05.01.08.04.09.03,0,.06,0,.09-.05.43-.36.82-.63,1.16-.8.34-.17.71-.25,1.11-.25.48,0,.87.11,1.18.33.31.22.53.5.66.84.02.03.03.04.05.04.04,0,.07-.02.12-.06.41-.37.8-.66,1.17-.85s.76-.29,1.17-.29c.62,0,1.11.18,1.46.54.35.36.53.85.53,1.48v4.77c0,.16-.08.23-.23.23h-.96c-.07,0-.12-.02-.14-.05-.03-.03-.04-.08-.04-.16v-4.55c0-.39-.1-.69-.29-.9-.19-.21-.48-.32-.86-.32-.52,0-1.07.27-1.66.82-.06.06-.1.12-.13.18-.03.06-.04.12-.04.2v4.55c0,.16-.08.23-.23.23h-.95c-.13,0-.2-.07-.2-.21v-4.55c0-.39-.09-.69-.28-.9-.19-.21-.47-.32-.86-.32-.31,0-.6.08-.87.23-.27.15-.59.4-.96.75v4.78c0,.08-.02.13-.06.17s-.1.05-.19.05h-.92c-.14,0-.21-.07-.21-.21Z" style="fill: rgb(0, 68, 170);"/>
      <path class="cls-1" d="m72.41,73.07c-.67,0-1.19-.17-1.58-.51-.39-.34-.58-.8-.58-1.37,0-.7.31-1.26.92-1.68.61-.42,1.48-.65,2.61-.7l.84-.07c.14-.02.21-.08.21-.19v-.33c0-.42-.13-.76-.39-1.01-.26-.25-.62-.37-1.07-.37-.71,0-1.28.32-1.7.96-.03.05-.05.08-.08.1-.03.01-.08.01-.14,0l-.88-.26c-.05-.02-.08-.05-.08-.1,0-.03.01-.08.04-.14.24-.47.61-.83,1.11-1.09.5-.26,1.1-.38,1.8-.38.91,0,1.59.19,2.04.58.45.39.68.93.68,1.62v4.59c0,.09-.02.15-.05.18s-.08.05-.15.05h-.87c-.12,0-.19-.09-.21-.26l-.03-.49c-.02-.07-.04-.1-.08-.1-.03,0-.07.03-.14.08-.63.61-1.37.91-2.22.91Zm2.24-3.56l-.7.05c-.72.04-1.29.19-1.71.44-.42.25-.63.59-.63,1.02,0,.34.12.6.36.8.24.19.57.29.98.29.47,0,.91-.16,1.33-.48.37-.3.56-.61.56-.91v-1.01c0-.14-.06-.2-.18-.2Z" style="fill: rgb(0, 68, 170);"/>
      <path class="cls-1" d="m84.91,66.11v.58c0,.17-.07.26-.22.26s-.27,0-.39.01c-.12,0-.23.03-.31.05-.11.03-.19.08-.23.12-.04.05-.05.11-.03.18,0,.03.04.11.1.26s.08.33.08.53c0,.62-.25,1.12-.75,1.51-.5.39-1.22.59-2.16.59-.57,0-.99.05-1.25.14-.26.1-.39.22-.39.38,0,.13.08.22.25.28.16.06.44.09.83.11l1.73.1c.78.04,1.36.23,1.75.55.39.32.58.75.58,1.29,0,.67-.3,1.19-.9,1.57-.6.38-1.45.57-2.55.57s-2.01-.15-2.61-.46-.89-.75-.89-1.33c0-.29.1-.55.31-.78.21-.23.51-.43.91-.61.1-.05.1-.1,0-.14-.43-.2-.65-.48-.65-.83,0-.21.1-.4.29-.58s.47-.33.81-.46c.05-.02.08-.04.08-.06,0-.03-.03-.06-.08-.09-.39-.2-.68-.44-.87-.73s-.29-.63-.29-1.03c0-.68.27-1.21.8-1.59s1.29-.58,2.26-.58c.85,0,1.51.2,1.99.58.06.04.11.06.14.06.05,0,.1-.03.16-.08.16-.17.37-.32.6-.45.24-.13.46-.19.66-.19.16,0,.25.08.25.23Zm-5,6.12c-.17,0-.34.03-.53.12-.19.09-.34.21-.47.37-.12.16-.19.34-.19.54,0,.79.81,1.18,2.44,1.18.68,0,1.19-.1,1.55-.29.36-.19.53-.49.53-.88,0-.56-.41-.87-1.22-.92l-2.12-.12Zm2.32-3.14c.27-.23.41-.56.41-.98s-.14-.77-.42-1.01-.68-.36-1.22-.36-.94.12-1.24.37-.44.58-.44,1.01.14.74.44.98c.29.23.7.35,1.24.35s.96-.11,1.23-.34Z" style="fill: rgb(0, 68, 170);"/>
      <path class="cls-1" d="m87.64,71.03c.19.32.44.57.76.75s.67.28,1.05.28.75-.08,1.07-.25c.31-.16.6-.42.86-.77.03-.03.06-.05.09-.05.04,0,.08,0,.1.03l.66.31s.07.06.07.1c0,.03-.01.06-.04.1-.36.54-.78.93-1.25,1.16s-1.04.36-1.7.36-1.23-.15-1.74-.44c-.51-.29-.91-.71-1.2-1.24-.29-.53-.43-1.14-.43-1.81,0-.73.15-1.37.44-1.92.29-.55.7-.98,1.2-1.28.51-.3,1.07-.45,1.7-.45s1.21.14,1.69.42c.49.28.86.69,1.12,1.23.26.54.4,1.17.4,1.91v.05c0,.08-.01.14-.03.18s-.08.06-.16.06h-4.81c-.09,0-.13.07-.13.21,0,.39.09.74.28,1.06Zm3.27-2.09c.09,0,.15-.01.18-.04.03-.03.05-.07.05-.14,0-.34-.07-.65-.21-.95-.14-.29-.35-.53-.62-.71-.27-.18-.6-.27-.97-.27s-.73.1-1.03.29c-.29.2-.52.45-.68.77-.16.32-.24.66-.23,1.03h3.52Z" style="fill: rgb(0, 68, 170);"/>
      <path class="cls-1" d="m103.24,66.12s.03.1.01.15l-2.63,6.45c-.05.15-.17.22-.34.22h-.61c-.17,0-.29-.07-.35-.21l-2.61-6.45s-.01-.04-.01-.07c0-.05.02-.09.05-.12.03-.03.08-.05.13-.05h1.08c.12,0,.2.06.22.17l1.87,4.71c.03.09.06.13.09.13s.07-.05.12-.14l1.85-4.71c.06-.1.14-.16.23-.16h.77c.06,0,.1.02.13.07Z" style="fill: rgb(0, 68, 170);"/>
      <path class="cls-1" d="m106.24,64.67c0,.1-.02.17-.06.21-.04.04-.11.06-.2.06h-.96c-.09,0-.15-.02-.18-.06-.03-.04-.05-.1-.05-.19v-1.18c0-.15.06-.22.2-.22h1.08c.05,0,.1.02.13.06.03.04.05.09.05.15v1.17Zm-.04,8.02c0,.1-.02.16-.06.2s-.11.05-.2.05h-.88c-.09,0-.15-.02-.18-.05s-.05-.08-.05-.16v-6.49c0-.07.01-.12.04-.15.03-.03.07-.05.14-.05h1.04c.1,0,.16.06.16.18v6.46Z" style="fill: rgb(0, 68, 170);"/>
      <path class="cls-1" d="m113.04,64.56c-.34-.16-.75-.25-1.23-.25-.62,0-1.09.13-1.44.38-.34.26-.51.61-.51,1.06,0,.6.42,1.04,1.27,1.33l1.95.61c1.47.46,2.21,1.33,2.21,2.6,0,.86-.32,1.53-.96,2.03-.64.49-1.51.74-2.62.74-.82,0-1.55-.14-2.18-.43-.63-.29-1.12-.69-1.47-1.22-.04-.07-.05-.11-.05-.13,0-.07.04-.13.13-.2l.64-.44c.08-.05.15-.08.21-.08s.11.03.16.09c.35.46.71.78,1.06.98.35.19.83.29,1.42.29.68,0,1.21-.12,1.59-.35.38-.23.57-.6.57-1.09,0-.31-.1-.57-.29-.79-.19-.21-.55-.41-1.06-.59l-1.96-.64c-.7-.23-1.23-.58-1.58-1.03s-.53-.95-.53-1.51.14-1.03.43-1.45.69-.75,1.2-.98c.52-.23,1.11-.34,1.79-.34s1.27.12,1.81.35c.54.23.99.55,1.33.96.04.04.07.09.07.14s-.02.1-.07.13l-.74.57s-.07.04-.1.04c-.03,0-.08-.04-.16-.12-.25-.29-.55-.51-.88-.68Z" style="fill: rgb(0, 68, 170);"/>
      <path class="cls-1" d="m118.58,64.67c0,.1-.02.17-.06.21-.04.04-.11.06-.2.06h-.96c-.09,0-.15-.02-.18-.06-.03-.04-.05-.1-.05-.19v-1.18c0-.15.06-.22.2-.22h1.08c.05,0,.1.02.13.06.03.04.05.09.05.15v1.17Zm-.04,8.02c0,.1-.02.16-.06.2s-.11.05-.2.05h-.88c-.09,0-.15-.02-.18-.05s-.05-.08-.05-.16v-6.49c0-.07.01-.12.04-.15.03-.03.07-.05.14-.05h1.04c.1,0,.16.06.16.18v6.46Z" style="fill: rgb(0, 68, 170);"/>
      <path class="cls-1" d="m121.92,72.62c-.51-.3-.9-.72-1.18-1.25-.28-.54-.42-1.15-.42-1.83s.14-1.33.43-1.88c.29-.55.68-.98,1.19-1.28.51-.3,1.09-.46,1.74-.46s1.24.15,1.75.46.9.73,1.18,1.28c.28.55.42,1.17.42,1.86s-.14,1.3-.42,1.83c-.28.54-.68.96-1.18,1.26-.51.3-1.09.46-1.75.46s-1.24-.15-1.75-.45Zm3.19-1.21c.34-.46.51-1.09.51-1.92s-.17-1.47-.51-1.93c-.34-.46-.82-.7-1.42-.7s-1.08.23-1.43.7c-.35.46-.52,1.11-.52,1.93s.17,1.45.52,1.91c.35.46.83.69,1.44.69s1.08-.23,1.42-.68Z" style="fill: rgb(0, 68, 170);"/>
      <path class="cls-1" d="m128.81,72.73v-6.49c0-.13.06-.2.17-.2h1.03c.1,0,.16.06.16.17v.72c0,.05.01.08.03.09.02,0,.05,0,.1-.05.45-.36.85-.63,1.2-.8s.72-.25,1.13-.25c.65,0,1.16.18,1.53.54.37.36.55.84.55,1.45v4.8c0,.16-.07.23-.22.23h-.96c-.13,0-.2-.07-.2-.21v-4.55c0-.39-.1-.69-.31-.9-.2-.21-.51-.32-.92-.32-.33,0-.63.08-.92.23-.28.15-.61.4-.99.75v4.78c0,.08-.02.13-.06.17s-.1.05-.19.05h-.92c-.14,0-.21-.07-.21-.21Z" style="fill: rgb(0, 68, 170);"/>
    </g>
  </g>
</svg>