<?xml version="1.0" encoding="utf-8"?>
<svg id="Layer_2" data-name="Layer 2" viewBox="-40.143 -39.042 6049.996 1735.723" xmlns="http://www.w3.org/2000/svg">
  <defs>
    <style>
      .cls-1, .cls-2 {
        fill: #386eb6;
      }

      .cls-2 {
        font-family: PTSans-Bold, 'PT Sans';
        font-size: 1296px;
        font-weight: 700;
      }
    </style>
  </defs>
  <path id="Logo" class="cls-1" d="m1763.7,1488.71c-3.83-7.1-95.5-175.86-247.35-347.19-89.86-101.39-182.16-182.37-274.34-240.68-20.45-12.94-40.91-24.74-61.36-35.45,3.09-95.11-10.09-199.71-39.5-312.45-36.82-141.15-92.87-269.65-133.4-352.59-43.96-89.94-78.92-146.09-80.39-148.44L894.91,0l-32.45,51.9c-1.47,2.35-36.43,58.5-80.39,148.44-40.53,82.94-96.58,211.44-133.4,352.59-29.57,113.34-42.73,218.45-39.45,313.96-19.49,10.31-38.99,21.61-58.49,33.95-92.18,58.32-184.48,139.3-274.34,240.68-151.85,171.33-243.52,340.09-247.35,347.19l-29.05,53.88,61.15,2.52c.61.03,15.27.62,40.89.62,0,0,0,0,0,0,99.75,0,357.46-8.97,595.69-91.98,73.03-25.45,138.4-55.86,195.64-90.96l1.53.97,2.98-1.89c57.6,35.49,123.45,66.21,197.12,91.88,238.24,83.01,495.95,91.98,595.69,91.98,25.62,0,40.28-.59,40.89-.62l61.15-2.52-29.05-53.88Zm-867.33-219.56c-74.37-53.6-129.28-117.13-164.55-190.32-22.42-49.77-36.85-104.84-43.23-165.16,65.83-29.32,135.61-47.62,207.78-48.43,71.16.8,140,18.6,205.01,47.2-9.73,93.61-38.77,174.62-86.99,242.77-31.48,41.93-70.83,79.93-118.01,113.94Zm-46.27-1033.69c16.68-34.21,32.15-63.55,44.79-86.59,44.71,81.63,125.1,242.82,172.2,423.38,24.27,93.04,36.87,178.7,37.88,256.85-66.52-26.85-134.75-40.44-203.57-40.44-1.68,0-3.35.04-5.03.05-1.68-.02-3.36-.05-5.03-.05-69.83,0-139.05,13.97-206.5,41.62.89-78.05,13.36-163.6,37.5-256.54,35.05-134.95,88.82-258.45,127.76-338.29Zm-177.55,1146.02c-208.08,72.5-433.14,85.78-543.18,87.5,38.92-63.19,110.51-171.05,205.29-277.8,73.4-82.67,169.52-174.18,279.79-239.14,8.95,61.76,27.15,119.33,54.46,172.41,35.85,74.21,87.57,137.91,154.76,190.53-45.08,24.92-95.45,47.1-151.12,66.5Zm447.64,0c-56.38-19.64-107.31-42.15-152.83-67.45,41.33-32.54,76.78-69.3,106.25-110.14,56.01-73.54,91.06-157.84,104.69-251.85,110.27,64.96,206.39,156.46,279.79,239.14,94.77,106.74,166.37,214.62,205.28,277.8-110.04-1.72-335.1-14.99-543.18-87.5Z"/>
  <text class="cls-2" transform="translate(1994 1518.15)" style="white-space: pre;"><tspan x="0" y="0">GRETSI</tspan></text>
</svg>